Combined use of eDNA metabarcoding and visual surveys to monitor rocky intertidal biodiversity
…
percentage_match

# A tibble: 206 × 7
   taxa           region eDNA_detected visual_detected total_detected perc_match
   <chr>          <chr>          <int>           <int>          <int>      <dbl>
 1 Actinia equina North…             0               4              4          0
 2 Actinia equina North…             0               4              4          0
 3 Actinia equina Scotl…             0               7              7          0
 4 Actinia equina South…             0               5              5          0
 5 Actinia equina South…             0               5              5          0
 6 Actinia fraga… South…             0               1              1          0
 7 Alaria escule… North…             0               1              1          0
 8 Alaria escule… North…             0               3              3          0
 9 Alaria escule… Scotl…             0               2              2          0
10 Alaria escule… South…             0               3              3          0
# ℹ 196 more rows
# ℹ 1 more variable: more_detected <chr>
…
print(percentage_match_genus)

# A tibble: 182 × 7
   genus    region       eDNA_detected visual_detected total_detected perc_match
   <chr>    <fct>                <int>           <int>          <int>      <dbl>
 1 Actinia  Scotland                 7               7             14       50  
 2 Actinia  Northeast E…             3               4              7       42.9
 3 Actinia  North Wales              3               4              7       42.9
 4 Actinia  South Wales              1               5              6       16.7
 5 Actinia  Southwest E…             5               5             10       50  
 6 Alaria   Scotland                 0               2              2        0  
 7 Alaria   Northeast E…             0               3              3        0  
 8 Alaria   North Wales              0               1              1        0  
 9 Alaria   Southwest E…             0               3              3        0  
10 Anemonia North Wales              0               2              2        0  
# ℹ 172 more rows
# ℹ 1 more variable: more_detected <chr>
…
print(percentage_match_family)

# A tibble: 164 × 7
   family     region     eDNA_detected visual_detected total_detected perc_match
   <chr>      <fct>              <int>           <int>          <int>      <dbl>
 1 Actiniidae Scotland               8               7             15       53.3
 2 Actiniidae Northeast…             5               4              9       55.6
 3 Actiniidae North Wal…             6               5             11       54.5
 4 Actiniidae South Wal…             8               5             13       61.5
 5 Actiniidae Southwest…            10               5             15       66.7
 6 Alariaceae Scotland               0               2              2        0  
 7 Alariaceae Northeast…             0               3              3        0  
 8 Alariaceae North Wal…             0               1              1        0  
 9 Alariaceae Southwest…             0               3              3        0  
10 Asteriidae Scotland               8               0              8      100  
# ℹ 154 more rows
# ℹ 1 more variable: more_detected <chr>
…
